cs535/storm/twittercount/TwitterSpout$1.class
cs535/storm/twittercount/TwitterSpout.class
cs535/storm/twittercount/OutputBolt.class
cs535/storm/twittercount/OutputBolt$1.class
cs535/storm/twittercount/Topology.class
cs535/storm/twittercount/LossyCountingBolt.class
cs535/storm/twittercount/FindHashtagBolt.class
cs535/storm/twittercount/HashtagPacket.class
cs535/storm/twittercount/LoggingBolt.class
